"Order Number","Tracking Number","Order Status"
"50168","1Z4873730314478441","Shipped"
"50182","1ZE57W440319054768","Shipped"
"50191","1ZE57W440319054071","Shipped"
"50193","9405510201852003013823","Shipped"
"50195","1ZE57W440319055687","Shipped"
"50200","1ZE57W440319055632","Shipped"
"50201","1ZE57W440319055767","Shipped"
"50204","1Z3281X00328282782","Shipped"
"50216","1Z4873730314478914","Shipped"
"50221","1Z005VW40316969946","Shipped"
